<?xml version="1.0" encoding="utf-8"?>
<!-- Generator: Adobe Illustrator 17.0.0, SVG Export Plug-In . SVG Version: 6.00 Build 0)  -->
<!DOCTYPE svg PUBLIC "-//W3C//DTD SVG 1.1//EN" "http://www.w3.org/Graphics/SVG/1.1/DTD/svg11.dtd">
<svg version="1.1" id="Layer_1" xmlns="http://www.w3.org/2000/svg" xmlns:xlink="http://www.w3.org/1999/xlink" x="0px" y="0px"
	 width="42.52px" height="42.52px" viewBox="0 0 42.52 42.52" enable-background="new 0 0 42.52 42.52" xml:space="preserve">
<g>
	<path fill="#F29E23" d="M36.89,16.041l-0.203-0.074l-0.791-1.923l0.087-0.198c2.396-5.54,2.23-5.705,1.833-6.107L34.622,4.56
		c-0.132-0.134-0.359-0.226-0.556-0.226c-0.179,0-0.725,0-5.44,2.181l-0.186,0.085l-1.947-0.8l-0.076-0.198
		C24.196,0,23.972,0,23.419,0h-4.509c-0.549,0-0.801,0-2.855,5.614l-0.08,0.204l-1.933,0.804l-0.186-0.078
		C10.667,5.17,8.803,4.476,8.32,4.476c-0.197,0-0.428,0.088-0.559,0.222L4.564,7.883c-0.404,0.41-0.573,0.582,1.947,6.005l0.094,0.2
		L5.81,16.013l-0.194,0.074C0,18.303,0,18.522,0,19.096v4.511c0,0.578,0,0.817,5.63,2.88l0.201,0.07l0.79,1.917L6.538,28.67
		c-2.395,5.544-2.244,5.691-1.836,6.107l3.19,3.182c0.131,0.131,0.362,0.226,0.559,0.226c0.18,0,0.722,0,5.441-2.178l0.186-0.091
		l1.947,0.803l0.076,0.198c2.219,5.603,2.447,5.603,2.999,5.603h4.509c0.566,0,0.801,0,2.858-5.618l0.076-0.204l1.937-0.8
		l0.186,0.078c3.186,1.378,5.05,2.072,5.533,2.072c0.194,0,0.425-0.088,0.559-0.222l3.2-3.196c0.404-0.409,0.57-0.578-1.954-5.998
		l-0.093-0.2l0.79-1.917l0.19-0.074c5.627-2.227,5.627-2.446,5.627-3.024V18.91C42.52,18.332,42.52,18.092,36.89,16.041
		L36.89,16.041z M21.259,28.572"/>
</g>
<g>
	<text transform="matrix(1 0 0 1 17.7289 32.3432)" fill="#FFFFFF" font-family="'NotoSans-Bold'" font-size="5">DB</text>
	<g>
		<path fill="#FFFFFF" d="M21.261,8.785c1.599,0.016,3.171,0.205,4.688,0.734c0.823,0.287,1.604,0.656,2.234,1.279
			c0.377,0.372,0.652,0.803,0.656,1.356c0.004,0.561-0.272,0.998-0.651,1.376c-0.629,0.625-1.411,0.993-2.233,1.281
			c-1.166,0.409-2.372,0.61-3.603,0.688c-1.572,0.099-3.13,0.004-4.665-0.361c-1.079-0.256-2.116-0.621-3.011-1.304
			c-0.417-0.318-0.763-0.698-0.925-1.21c-0.179-0.57-0.022-1.077,0.329-1.533c0.497-0.646,1.183-1.036,1.913-1.347
			c1.307-0.556,2.684-0.812,4.094-0.903C20.48,8.814,20.87,8.802,21.261,8.785"/>
		<path fill="#FFFFFF" d="M28.839,16.964c0,0.717,0.015,1.512-0.005,2.307c-0.013,0.521-0.297,0.929-0.657,1.283
			c-0.61,0.599-1.361,0.962-2.154,1.246c-1.22,0.437-2.486,0.646-3.777,0.72c-1.591,0.091-3.165-0.02-4.714-0.405
			c-0.872-0.217-1.714-0.518-2.478-1.001c-0.481-0.304-0.921-0.66-1.175-1.185c-0.099-0.203-0.184-0.436-0.19-0.657
			c-0.023-0.794-0.009-1.59-0.009-2.415c0.274,0.975,0.994,1.499,1.806,1.926c1.007,0.531,2.095,0.811,3.212,0.992
			c1.331,0.216,2.67,0.254,4.01,0.137c1.497-0.131,2.956-0.428,4.309-1.119c0.527-0.269,1.024-0.588,1.381-1.07
			C28.583,17.472,28.713,17.185,28.839,16.964"/>
		<path fill="#FFFFFF" d="M13.679,20.389c0.206,0.763,0.742,1.254,1.377,1.652c1.078,0.676,2.28,1.006,3.519,1.219
			c1.085,0.186,2.18,0.253,3.279,0.209c1.615-0.065,3.197-0.306,4.694-0.949c0.703-0.302,1.358-0.678,1.853-1.284
			c0.205-0.252,0.352-0.532,0.442-0.851v0.14c0,0.053,0,0.107,0,0.16c0,0.617-0.014,1.235,0.004,1.851s-0.242,1.101-0.662,1.516
			c-0.621,0.615-1.389,0.986-2.201,1.267c-1.924,0.665-3.91,0.825-5.93,0.69c-1.2-0.08-2.376-0.286-3.512-0.688
			c-0.799-0.282-1.557-0.642-2.176-1.24c-0.445-0.43-0.711-0.931-0.693-1.574C13.694,21.801,13.679,21.095,13.679,20.389"/>
		<path fill="#FFFFFF" d="M13.679,13.39c0.218,0.755,0.744,1.239,1.369,1.633c0.962,0.606,2.03,0.936,3.135,1.151
			c1.624,0.317,3.26,0.372,4.906,0.189c1.196-0.132,2.363-0.38,3.471-0.861c0.707-0.307,1.378-0.679,1.855-1.306
			c0.182-0.239,0.303-0.525,0.425-0.743c0,0.731,0.016,1.526-0.006,2.32c-0.013,0.514-0.296,0.917-0.649,1.267
			c-0.617,0.611-1.379,0.982-2.184,1.261c-1.941,0.673-3.945,0.836-5.983,0.694c-1.194-0.083-2.365-0.289-3.494-0.692
			c-0.791-0.283-1.545-0.641-2.159-1.236c-0.445-0.431-0.71-0.933-0.691-1.576C13.694,14.791,13.679,14.09,13.679,13.39"/>
	</g>
</g>
</svg>
